<?xml version="1.0" encoding="UTF-8"?>
<svg width="20px" height="21px" viewBox="0 0 20 21" version="1.1" xmlns="http://www.w3.org/2000/svg" xmlns:xlink="http://www.w3.org/1999/xlink">
    <title>Untitled</title>
    <g id="Page-1" stroke="none" stroke-width="1" fill="none" fill-rule="evenodd">
        <g id="haven" fill="#E9E9EA" fill-rule="nonzero">
            <path d="M5.161,13 L11,13 L11,5.702 L5.161,13 Z M13,1.425 L13,14 C13,14.5522847 12.5522847,15 12,15 L2.04,15 C1.84800628,14.9997267 1.67312552,14.8895413 1.59000222,14.7164743 C1.50687892,14.5434073 1.5301956,14.3380286 1.65,14.188 L12.11,1.113 C12.2426985,0.947597739 12.4652985,0.883890114 12.6654121,0.954042307 C12.8655258,1.0241945 12.9996231,1.21294658 13,1.425 Z" id="Shape"></path>
            <path d="M0.999997119,17 L18.9999971,17 C19.189386,17 19.3625176,17.1070012 19.4472136,17.2763932 C19.5319096,17.4457852 19.5136316,17.6484912 19.4,17.8 L17.3,20.6 C17.1111456,20.8518058 16.8147573,21 16.4999971,21 L3.49999712,21 C3.1852427,21 2.88885438,20.8518058 2.7,20.6 L0.6,17.8 C0.486368382,17.6484912 0.468090397,17.4457852 0.552786405,17.2763932 C0.637482412,17.1070012 0.810613971,17 0.999997119,17 Z" id="Path"></path>
        </g>
    </g>
</svg>